-------------------------------------------------------------------------------
Test set: arabov.spock.CalculatorTest
-------------------------------------------------------------------------------
Tests run: 6, Failures: 0, Errors: 0, Skipped: 0, Time elapsed: 0.516 sec - in arabov.spock.CalculatorTest
